<?xml version="1.0" encoding="iso-8859-1"?>
<svg viewBox="0 0 571 517" version="1.1" id="fdsfsdfsd" xmlns="http://www.w3.org/2000/svg" xmlns:xlink="http://www.w3.org/1999/xlink" style="fill:#5555aa;">
  <g class="plane">
    <path d="M495.7 257.76l-.1 12.17-20.73 35.33 8.36 23.97 7.3 20.88 6.74 19.3-9.33 15.4-34.27-51-34.77 39.5c-.73 1.08-1.46 2-2.2 2.8l11.72 19.3-8.2 11.4-13.68-20.4-1.08-.8-8.92 9.45-1.38-1.85 6.76-10.15-3.1-2.23-19.3-6.4 7.62-10.56 22.68 7.2c.3-.6.6-1.2 1.02-1.77L437.5 321l-.6-.48-61.7-19.5 10.5-12.08 21.8.7 21.8.66 28.78.9.2.15L483 262.7l12.76-4.9z"/>  </g>
</svg>